%YAML 1.1
%TAG !u! tag:unity3d.com,2011:
--- !u!114 &11400000
MonoBehaviour:
  m_ObjectHideFlags: 0
  m_CorrespondingSourceObject: {fileID: 0}
  m_PrefabInstance: {fileID: 0}
  m_PrefabAsset: {fileID: 0}
  m_GameObject: {fileID: 0}
  m_Enabled: 1
  m_EditorHideFlags: 0
  m_Script: {fileID: 11500000, guid: 5f3c414816d50f1449c397855a69685f, type: 3}
  m_Name: InputManager
  m_EditorClassIdentifier: 
  touchInput: {fileID: 11400000, guid: 2e4d526c420349747a834d10025c10d3, type: 2}
  keyboardInput: {fileID: 11400000, guid: 5d00fcceb921fc743b2e2ef2181b5eeb, type: 2}
  mouseInput: {fileID: 11400000, guid: ee76b08666283d54abe1f3b21b222891, type: 2}
